{
  "images" : [
    {
      "idiom" : "universal",
      "filename" : "stock-vector-default-ui-image-placeholder-for-wireframes-for-apps-and-websites-1037719192.jpg",
      "scale" : "1x"
    },
    {
      "idiom" : "universal",
      "filename" : "stock-vector-default-ui-image-placeholder-for-wireframes-for-apps-and-websites-1037719193.jpg",
      "scale" : "2x"
    },
    {
      "idiom" : "universal",
      "filename" : "stock-vector-default-ui-image-placeholder-for-wireframes-for-apps-and-websites-1037719194.jpg",
      "scale" : "3x"
    }
  ],
  "info" : {
    "version" : 1,
    "author" : "xcode"
  }
}